[
  {
    "id": 1,
    "name": "CloudX Meeting",
    "description": "Optimalkan komunikasi dan produktivitas bisnis Anda dengan CloudX, solusi terjangkau untuk tetap terhubung di mana pun dan kapan pun berbasis cloud.",
    "feature": "Layanan komunikasi internal perusahaan yang menggabungkan feature PABX dan juga instant messaging yang dapat diakses secara mobile melalui smartphone Anda. \n\nMass video conference hingga 100 partisipan serta didukung dengan fitur screen sharing, chatting dan whiteboard yang membuat meeting lebih efisien kapan pun dan dimanapun. \n\nKhusus untuk perusahaan yang sudah mempunyai license contact center, bisa mempunyai platform contact center inbound dan outbound dengan fitur login-logout untuk agent dan supervisor, monitoring agent, realtime analytic dengan harga yang kompetitif per seat.",
    "banner": "https://www.telkomsel.com/sites/default/files/asset/fullhtml/img/gallery/telkomsel/header_cloudx.jpg",
    "target": "Large Enterprise",
    "categoryId": 1,
    "link": "https://www.telkomsel.com/en/mybusiness/korporasi/advanced-connectivity/cloudx"
  },
  {
    "id": 2,
    "name": "CloudX Hub",
    "description": "Optimalkan komunikasi layanan pelanggan dengan platform call center berbasis cloud yang terintegrasi tanpa perlu investasi perangkat tambahan",
    "feature": "Gunakan Smartphone Anda untuk berkomunikasi di mana saja dan kapan saja. \n\nPersonalisasi nada panggilan Anda menggunakan Lagu perusahaan untuk meningkatkan citra merek Anda. \n\nTidak perlu khawatir menginvestasikan buddet Anda. Semuanya ada dalam cloud milik Telkomsel dengan penyebaran yang fleksibel. \n\nVariasi fitur serta mudah dioperasikan membuat Anda bisa tetap fokus pada inti bisnis. \n\nAnda tidak akan ketinggalan kinerja agen Anda dengan dasboard pemantau yang terintegrasi (All-in).",
    "banner": "https://www.telkomsel.com/sites/default/files/asset/fullhtml/img/gallery/telkomsel/CloudX_Hub_Header_0.jpg",
    "target": "Large Enterprise",
    "categoryId": 1,
    "link": "https://www.telkomsel.com/en/mybusiness/korporasi/advanced-connectivity/cloudx-hub"
  },
  {
    "id": 3,
    "name": "Compack UKM",
    "description": "Apapun kebutuhan komunikasi bisnis Anda, Compack UKM hadir dengan berbagai keuntungan.",
    "feature": "Menawarkan fleksibilitas antara pengguna pascabayar (kartuHalo) dan juga prabayar (simPATI dan Kartu As) \n\nTelepon dan SMS (non-broadcast) sepuasnya untuk para karyawan yang telah terdaftar pada close user group \n\nBayar tunjangan komunikasi karyawan dalam satu tagihan",
    "banner": "https://www.telkomsel.com/sites/default/files/asset/fullhtml/img/gallery/telkomsel/header_compact_ukm.jpeg",
    "target": "Small & Medium Enterprise",
    "categoryId": 3,
    "link": "https://www.telkomsel.com/en/mybusiness/umkm/basic-connectivity/compack-ukm"
  },
  {
    "id": 4,
    "name": "99% Usahaku",
    "description": "Digitalisasi UKM untuk mendapatkan pengetahuan dan proses bisnis melalui edukasi digital, serta fasilitasi ke akses pasar yang lebih luas.",
    "feature": "Perkaya diri negan ilmu bisnis terkini dengan memanfaatkan edukasi digital mulai dari artikel, online training hingga forum diskusi. \n\nSejalan dengan misi digitalisasi UKM yang dicanangkan pemerintah, fitur marketplace turut membantu meningkatkan penjualan UKM hingga ke pelosok negeri. \n\nNikmati kemudahan beragam solusi digital Telkomsel Enterprise melalui aplikasi 99% Usahaku.",
    "banner": "https://www.telkomsel.com/sites/default/files/asset/fullhtml/img/gallery/telkomsel/header_99usahaku.jpeg",
    "target": "Small & Medium Enterprise",
    "categoryId": 4,
    "link": "https://www.telkomsel.com/en/mybusiness/umkm/cloud/99-usahaku"
  },
  {
    "id": 5,
    "name": "Office 365",
    "description": "Diciptakan untuk bisnis Anda, agar karyawan dapat menikmati waktu produktif di mana pun mereka bekerja.",
    "feature": "Telkomsel Office 365 menyediakan sarana, perangkat dan platform yang fleksibel dan familiar untuk digunakan bersama oleh seluruh tim. \n\nTelkomsel Office 365 membantu Anda bekerja baik secara online atau offline dari komputer, tablet, atau ponsel. \n\nAnda memegang kendali keamanan data dan kepatuhan terhadap privasi, transparensi dan pengaturan pengguna yang baik tercipta di dalamnya.",
    "banner": "https://www.telkomsel.com/sites/default/files/asset/fullhtml/img/gallery/telkomsel/header_office365.jpg",
    "target": "Small & Medium Enterprise",
    "categoryId": 4,
    "link": "https://www.telkomsel.com/en/mybusiness/umkm/cloud/office-365"
  },
  {
    "id": 6,
    "name": "Toko Digital",
    "description": "Punya toko online tidak perlu keahlian IT yang tinggi atau investasi besar. Toko Digital siap membantu UKM dalam memasarkan produk atau jasanya kepada pelanggan.",
    "feature": "Buka toko Anda dengan template desain yang mudah diaplikasikan dan tanpa harus memiliki pengetahuan tentang desain. \n\nSistem manajemen pelanggan yang lengkap dengan analisis perkembangan penjualan dan pengunjung. \n\nTerima pembayaran lewat transfer bank, PayPal dan Doku. Kirim produk Anda melalui berbagai perusahaan pengiriman.",
    "banner": "https://www.telkomsel.com/sites/default/files/asset/fullhtml/img/gallery/telkomsel/header_Toko_digital.jpg",
    "target": "Small & Medium Enterprise",
    "categoryId": 4,
    "link": "https://www.telkomsel.com/en/mybusiness/umkm/cloud/toko-digital"
  },
  {
    "id": 7,
    "name": "Kasir Digital",
    "description": "Kembangkan bisnis Anda dengan Kasir Digital, transaksi jadi lebih cepat dan mudah untuk Anda dan pelanggan.",
    "feature": "Mencatat transaksi tak terbatas, pantau penjualan dan laporan semua cabang dari manapun. \n\nKemudahaan mengatur stok barang, setting harga modal, harga jual dan resep. \n\nData pelanggan lengkap serta lebih mudah dalam mengirimkan voucher promo sesuai product jasa favorit mereka. \n\nPelaporan analisa berdasarkan semua aktivitas usaha.",
    "banner": "https://www.telkomsel.com/sites/default/files/asset/fullhtml/img/gallery/telkomsel/header_Kasir_Digital.jpg",
    "target": "Small & Medium Enterprise",
    "categoryId": 4,
    "link": "https://www.telkomsel.com/en/mybusiness/umkm/cloud/kasir-digital"
  },
  {
    "id": 8,
    "name": "SME Kit",
    "description": "Solusi lengkap bagi pelaku usaha berupa aplikasi POS dan konektivitas ditambah dengan voucher beriklan digital untuk meningkatkan efisiensi dan efektifitas usaha Anda.",
    "feature": "Aplikasi yang komprehensif dalam mendukung Point of Sales/POS, pengaturan stok/inventori, keuangan, HR, dan sistem loyalti pelanggan \n\nSejalan dengan misi digitalisasi UKM yang dicanangkan pemerintah, fitur marketplace turut membantu meningkatkan penjualan UKM hingga ke pelosok negeri. \n\nTerdapat dashboard berbasis cloud yang memudahkan Anda memantau transaksi penjualan kapanpun dimanapun",
    "banner": "https://www.telkomsel.com/sites/default/files/asset/fullhtml/img/gallery/telkomsel/sme_header_sme_kit.jpg",
    "target": "Small & Medium Enterprise",
    "categoryId": 4,
    "link": "https://www.telkomsel.com/en/mybusiness/umkm/cloud/sme-kit"
  },
  {
    "id": 9,
    "name": "MyAds",
    "description": "Kirim iklan promosi Anda dalam SMS, MMS dan pesan Pop-up ke lebih dari 160 juta pengguna Telkomsel",
    "feature": "Mengirim pesan iklan Anda ke lokasi yang tepat dalam bentuk teks atau gambar. \n\nMengirim pesan iklan secara massal kepada para pelanggan Anda dalam bentuk teks atau gambar. \n\nMengirim pesan iklan ke pelanggan yang sesuai dengan target pasar Anda dalam bentuk teks atau gambar.",
    "banner": "https://www.telkomsel.com/sites/default/files/asset/fullhtml/img/gallery/telkomsel/header_myads.jpeg",
    "target": "Small & Medium Enterprise",
    "categoryId": 2,
    "link": "https://www.telkomsel.com/en/mybusiness/umkm/analytics/myads"
  },
  {
    "id": 10,
    "name": "IoT Managed Service Connectivity",
    "description": "Kelola aset bisnis Anda dengan managed connectivity services yang handal. Kami berkolaborasi dengan berbagai mitra industri agar perusahaan Anda bisa beroperasi di mana saja, kapan saja, tanpa kekhawatiran.",
    "feature": "Penuhi kebutuhan bisnis Anda dengan satelit broadband, akses Internet, dan layanan video streaming. \n\nAmankan aset bisnis Anda dengan wired leased line terpercaya, backup VSAT dan solusi banking.",
    "banner": "https://www.telkomsel.com/sites/default/files/asset/fullhtml/img/gallery/telkomsel/header_IoT-Manage-Service-Connectivity.jpg",
    "target": "Small & Medium Enterprise",
    "categoryId": 5,
    "link": "https://www.telkomsel.com/en/mybusiness/umkm/iot/iot-managed-service-connectivity"
  },
  {
    "id": 11,
    "name": "NB-IoT",
    "description": "Teknologi jaringan LPWAN yang dirancang spesifik untuk mendukung perangkat IoT dengan efisiensi tinggi, harga terjangkau, baterai tahan lama hingga 10 tahun dan keamanan LTE terpercaya.",
    "feature": "Baterai tahan lama hingga 10 tahun \n\n+ 20dB link budget (vs. GSM) \n\n>100,000 jaringan per cell \n\nModul targeting hemat biaya \n\nThroughput terbatas <200kbps \n\nKapabilitas uplink dan downlink \n\nEnkripsi dan Otentikasi SIM-based \n\nStandardized Spectrum R13",
    "banner": "https://www.telkomsel.com/sites/default/files/asset/fullhtml/img/gallery/telkomsel/header_nb_iot.jpg",
    "target": "Small & Medium Enterprise",
    "categoryId": 5,
    "link": "https://www.telkomsel.com/en/mybusiness/umkm/iot/nb-iot"
  },
  {
    "id": 12,
    "name": "Compack Enterprise",
    "description": "Suksesnya bisnis di dunia yang penuh tantangan saat ini bergantung pada efektifitas komunikasi.",
    "feature": "Menawarkan fleksibilitas antara pengguna pascabayar (kartuHalo) dan juga prabayar (simPATI dan Kartu As). \n\nBerapa pun jumlah karyawan di perusahaan Anda, Anda bisa menggunakan Compack Enterprise dengan mudah. \n\nBekerja sama dengan sesama karyawan lewat paket khusus untuk telepon, SMS dan internet.",
    "banner": "https://www.telkomsel.com/sites/default/files/asset/fullhtml/img/gallery/telkomsel/header_1558129118.jpg",
    "target": "Large Enterprise",
    "categoryId": 3,
    "link": "https://www.telkomsel.com/en/mybusiness/korporasi/basic-connectivity/compact-enterprise"
  },
  {
    "id": 13,
    "name": "Touch To Talk",
    "description": "Nikmati kemudahan memonitor pekerjaan di lapangan dengan Touch to Talk, ubah ponsel menjadi walkie-talkie dengan berbagai fitur.",
    "feature": "Kirim pesan singkat berupa tulisan, suara, gambar maupun video untuk perorangan maupun grup. \n\nPastikan seluruh karyawan Anda tetap berada di daerah yang telah ditentukan. \n\nPantau lokasi seluruh karyawan Anda dan informasikan mereka dimana lokasi Anda. \n\nPelanggan dapat menggunakan data seluler yang ada untuk melakukan panggilan aplikasi (VoIP) baik perorangan ataupun grup. \n\nKirim pesan penting ke seluruh karyawan Anda secara langsung kapan pun Anda perlukan.",
    "banner": "https://www.telkomsel.com/sites/default/files/asset/fullhtml/img/gallery/telkomsel/header_touch2talk.jpeg",
    "target": "Large Enterprise",
    "categoryId": 1,
    "link": "https://www.telkomsel.com/en/mybusiness/korporasi/advanced-connectivity/touch-to-talk"
  },
  {
    "id": 14,
    "name": "Network Prioritization",
    "description": "Jaminan kecepatan jaringan untuk kelancaran operasional bisnis Anda.",
    "feature": "Menjamin kecepatan dan kestabilan jaringan \n\nCompact, fleksibel dan simple instalasi jaringan, menjamin mobilitas bisnis Anda \n\nMinimum konfigurasi dan biaya yang efisien \n\nDapat diandalkan di segala kondisi cuaca",
    "banner": "https://www.telkomsel.com/sites/default/files/asset/fullhtml/img/gallery/telkomsel/LE_Header_Network_Prioritization.jpg",
    "target": "Large Enterprise",
    "categoryId": 1,
    "link": "https://www.telkomsel.com/en/mybusiness/korporasi/advanced-connectivity/network-prioritization"
  },
  {
    "id": 15,
    "name": "Field Force Management",
    "description": "Aplikasi mobile berbasis cloud untuk mengatur dan memonitor pekerja lapangan dan meningkatkan komunikasi antar pekerja di mana pun mereka berada.",
    "feature": "Supervisor dapat melakukan penjadwalan tugas karyawan lapangan via portal web serta melihat progress pekerjaan. \n\nMembantu menentukan rute yang paling efektif dengan mempertimbangkan situasi lalu lintas dan urutan kunjungan. \n\nPosisi setiap karyawan lapangan dapat dilacak dan diawasi secara real time. \n\nSemua informasi pelanggan seperti permintaan layanan, order history, feedback pelanggan, bahkan riwayat transaksi pelanggan dapat dilihat di aplikasi. \n\nMeningkatkan visibilitas karyawan di lapangan, serta mengambil dan mengunggah foto secara langsung melalui aplikasi. \n\nSemua informasi pelanggan seperti permintaan layanan, order history, feedback pelanggan, bahkan riwayat transaksi pelanggan dapat dilihat di aplikasi.",
    "banner": "https://www.telkomsel.com/sites/default/files/asset/fullhtml/img/gallery/telkomsel/header_615293444.jpg",
    "target": "Large Enterprise",
    "categoryId": 4,
    "link": "https://www.telkomsel.com/en/mybusiness/korporasi/cloud/field-force-management"
  },
  {
    "id": 16,
    "name": "Smart Dashboard",
    "description": "Pantau dan kelola seluruh sistem area industri Anda dengan dashboard tunggal yang disesuaikan dengan kebutuhan dan dilengkapi kemampuan integrasi melalui Application Programming Interface (API).",
    "feature": "Memantau dan mengelola aset bergerak Anda di seluruh aspek. \n\nKemudahan integrasi platform melalui API dengan database perusahaan, backend support dan aplikasi internal perusahaan. \n\nGunakan data untuk meningkatkan proses dan performa bisnis perusahaan. \n\nGunakan data grafik untuk memantau performa bisnis perusahaan dan mendapatkan insight. \n\nRespon tindakan pencegahan dan perbaikan yang lebih cepat dan lebih baik untuk setiap kejadian. \n\nSatu dashboard yang terintegrasi untuk memantau semua sistem IT perusahaan.",
    "banner": "https://www.telkomsel.com/sites/default/files/asset/fullhtml/img/gallery/telkomsel/header_1636306015.jpg",
    "target": "Large Enterprise",
    "categoryId": 4,
    "link": "https://www.telkomsel.com/en/mybusiness/korporasi/cloud/smart-dashboard"
  },
  {
    "id": 17,
    "name": "Mobile Device Management",
    "description": "Pastikan keamanan data, konten, dan aplikasi perusahaan Anda dapat diakses dari mana saja dan kapan saja. \n*Didukung dengan Android Zero-Touch",
    "feature": "Tingkatan lebih dari solusi Enterprise Mobility Management (EMM) untuk mengelola setiap endpoint dari desktop, mobile hingga IoT \n\nPendaftaran Zero touch memungkinkan penerapan Android dalam skala besar di beberapa pembuat perangkat sehingga organisasi dapat memobilisasi karyawannya dengan mudah. \n\nMembawa Windows, Linux, web dan aplikasi Saas dengan aman ke perangkat apa pun dan memungkinkan karyawan bekerja pada data yang sangat rahasia dan sensitif di mana pun, kapan pun, di seluruh perangkat tanpa membahayakan data perusahaan. \n\nAmankan solusi sinkronisasi dan pembagian file perusahaan untuk mendukung kolaborasi dan menciptakan ruang kerja digital, dengan pelacakan dokumen lengkap",
    "banner": "https://www.telkomsel.com/sites/default/files/asset/fullhtml/img/gallery/telkomsel/header_mobile_security.jpg",
    "target": "Large Enterprise",
    "categoryId": 6,
    "link": "https://www.telkomsel.com/en/mybusiness/korporasi/security/mobile-device-management"
  },
  {
    "id": 18,
    "name": "IoT Control Center",
    "description": "Solusi cloud-based yang aman dan terpercaya untuk perangkat IoT Anda. Fitur automation dan tracking (LOCI) Control Center memberikan visibilitas dan keamanan untuk aset Anda, menjaga kualitas layanan, memastikan kinerja perangkat selalu optimal, dan biaya bisa selalu terprediksi.",
    "feature": "Tentukan siklus SIM card sesuai keinginan dan monitor pemakaiannya. \n\nLihat seluruh aset sesuai parameter bisnis Anda melalui platform yang mudah dikonfigurasi. \n\nDiagnosa dan analisa real-time untuk identifikasi dan merespon kejanggalan perangkat sebelum menjadi masalah. \n\nManajemen siklus, diagnosa, dan pengendalian perangkat di lapangan secara otomatis. \n\nDengan lebih dari 100 API, kini memilih rate plan dan mengelola perangkat jadi lebih mudah. Buat proses bisnis Anda serba otomatis dan tingkatkan performa dengan berbagai platform teknologi dari mitra kami. \n\nKelola berbagai proses billing dengan mudah dan otomatis.",
    "banner": "https://www.telkomsel.com/sites/default/files/asset/fullhtml/img/gallery/telkomsel/header_1104291401.jpg",
    "target": "Large Enterprise",
    "categoryId": 5,
    "link": "https://www.telkomsel.com/en/mybusiness/korporasi/iot/iot-control-center"
  },
  {
    "id": 19,
    "name": "INTANK",
    "description": "Solusi manajemen yang memberi Anda visibilitas aset likuid secara real-time. Kontrol dan monitor aset likuid anda dengan optimasi suplai, maintenance prediktif, dan dapatkan insight bisnis, semua dalam satu dashboard.",
    "feature": "Analisa tren pemakaian berbasis data aktual. \n\nMonitor lama waktu mesin menyala untuk manajemen dan perawatan aset. \n\nDapatkan status level kapasitas stok terkini dari aset Anda. \n\nPantau distribusi dan pergerakan aset Anda secara real-time. \n\nJaga aset Anda agar selalu dalam kondisi temperatur yang sesuai.",
    "banner": "https://www.telkomsel.com/sites/default/files/asset/fullhtml/img/gallery/telkomsel/header_376134802.jpg",
    "target": "Large Enterprise",
    "categoryId": 5,
    "link": "https://www.telkomsel.com/en/mybusiness/korporasi/iot/intank"
  },
  {
    "id": 20,
    "name": "SDWAN",
    "description": "Cara baru dan transformasional untuk mengoperasikan WAN perusahaan. Secara signifikan meningkatkan aspek kinerja bisnis Anda, termasuk keandalan dan efisiensi biaya.",
    "feature": "Layanan end-to-end SDWAN yang dikelola dari penyedia layanan cloud. \n\nPlatform Cloud Managed multi-tenant yang aman, sederhana dan bisa diakses sacara mandiri. \n\nManajemen SDWAN dengan Zero Touch Provisioning. \n\nDengan cepat membuat layanan monetisasi baru, ubah layanan yang ada secara instan dari Cloud. \n\nTepat untuk pelanggan yang mencari biaya lebih efisien dan opsi SDWAN yang dikelola sendiri.",
    "banner": "https://www.telkomsel.com/sites/default/files/asset/fullhtml/img/gallery/telkomsel/Header_SDWAN.jpg",
    "target": "Large Enterprise",
    "categoryId": 5,
    "link": "https://www.telkomsel.com/en/mybusiness/korporasi/iot/sdwan"
  },
  {
    "id": 21,
    "name": "Data Secure Access",
    "description": "Berikan karyawan Anda kebebasan untuk bekerja dari mana saja dengan Data Secured Access, meningkatkan produktifitas karyawan dan efisiensi perusahaan.",
    "feature": "Pilih koneksi sesuai kebutuhan Anda, baik itu inetcorporate, inetspec atau pun leased line. \n\nGunakan APN khusus untuk akses data perusahaan Anda. \n\nPenawaran berbagai paket bulk maupun individual sesuai dengan kebutuhan perusahaan Anda.",
    "banner": "https://www.telkomsel.com/sites/default/files/asset/fullhtml/img/gallery/telkomsel/header_791476876.jpg",
    "target": "Governance",
    "categoryId": 1,
    "link": "https://www.telkomsel.com/en/mybusiness/pemerintahan/advanced-connectivity/data-secured-access"
  },
  {
    "id": 22,
    "name": "Digital Smart City",
    "description": "Berikan penangan langsung untuk infrastrukstur dan kondisi lingkungan melalui dashboard tunggal digital.",
    "feature": "Membantu pemerintah menganalisis dan merangkum seluruh tanggapan dari masyarakat dengan lebih akurat melalui grafik yang komprehensif. \n\nAnalisa kondisi lalu lintas terupdate melalui CCTV dengan sistem plug and play. \n\nMenampilkan tingkat polusi di setiap daerah dengan update informasi dalam hitungan jam. \n\nMengklasifikasi dan merangkum data dari sosial media berdasarkan kriteria tertentu, seperti topik, popularitas, dan analisa sentimen. \n\nLebih mudah mencari orang atau mobil ketika dibutuhkan dengan CCTV yang dilengkapi teknologi pengenalan plat nomor dan wajah terbaru.",
    "banner": "https://www.telkomsel.com/sites/default/files/asset/fullhtml/img/gallery/telkomsel/header_664137217.jpg",
    "target": "Governance",
    "categoryId": 4,
    "link": "https://www.telkomsel.com/en/mybusiness/pemerintahan/cloud/digital-smart-city"
  },
  {
    "id": 23,
    "name": "Smart Tax",
    "description": "Kemudahan bagi Otoritas Pajak melihat secara real-time transaksi harian di setiap merchant.",
    "feature": "Transaksi penjualan dilaporkan secara real time dan online \n\nPengawasan lebih akurat \n\nStruk yang dicetak dapat menghasilkan QR Code",
    "banner": "https://www.telkomsel.com/sites/default/files/asset/fullhtml/img/gallery/telkomsel/header_1029907810.jpg",
    "target": "Governance",
    "categoryId": 4,
    "link": "https://www.telkomsel.com/en/mybusiness/pemerintahan/cloud/smart-tax"
  },
  {
    "id": 24,
    "name": "Digital Right Mangement",
    "description": "Apakah Anda perlu mengaktifkan produktivitas pribadi, memfasilitasi kolaborasi tim, atau mengekang solusi karyawan yang bermaksud baik, BlackBerry® Workspaces adalah pilihan terbaik untuk penyimpanan file yang aman, sinkronisasi, dan berbagi.",
    "feature": "Keamanan berjalan bersama file Anda ke mana pun mereka pergi, mengendalikan akses bahkan setelah mereka meninggalkan firewall Anda. File dilindungi oleh enkripsi 256-bit yang disertifikasi AES setiap saat. \n\nAplikasi Workspaces tersedia untuk browser Windows®, macOS, Android ™, iOS dan HTML5. Ini satu-satunya produk yang memberlakukan DRM di iOS dan Android \n\nRuang kerja menawarkan akses dan kontrol terpadu untuk semua penyimpanan data yang ada — tidak perlu memigrasikan file Anda. \n\nRuang kerja menyediakan log aktivitas lengkap untuk memenuhi persyaratan kepatuhan dan keamanan dan privasi. \n\nBuat ruang kerja kolaboratif dan kelola akses dan izin oleh grup dan individu. Mode hanya lihat memungkinkan pengguna membuat catatan dan mengomentari file dalam aplikasi browser HTML5 yang aman.",
    "banner": "https://www.telkomsel.com/sites/default/files/asset/fullhtml/img/gallery/telkomsel/header_664137217.jpg",
    "target": "Governance",
    "categoryId": 6,
    "link": "https://www.telkomsel.com/en/mybusiness/pemerintahan/security/digital-right-management"
  },
  {
    "id": 25,
    "name": "FleetSight",
    "description": "Solusi manajemen yang memberi insight dan layanan profesional untuk meningkatkan produktivitas, keamanan dan efisiensi armada anda. Dengan FleetSight, anda dapat mengakses armada anda di mana saja, kapan saja.",
    "feature": "Didukung oleh sinyal kuat Telkomsel di seluruh Indonesia, kami pastikan armada Anda selalu terhubung di mana saja, kapan saja. \n\nSemua kebutuhan Anda dengan biaya terjangkau. Dari smart connectivity, SIM card industrial-grade dengan fitur manajemen jaringan, maintenance dan upgrade gratis sesuai kontrak. \n\nDapatkan berbagai insight mengenai keamanan dan produktivitas armada, yang membantu Anda mendapatkan ROI lebih cepat. \n\nDapatkan layanan berkelanjutan dengan teknologi jaringan 2G/3G terkini kami. \n\nAnda akan selalu mendapatkan performa platform yang maksimal dengan layanan sales dan support on-site terpercaya kami. Kini tersedia di 31 kota di Indonesia.",
    "banner": "https://www.telkomsel.com/sites/default/files/asset/fullhtml/img/gallery/telkomsel/header_fleetsight.jpg",
    "target": "Governance",
    "categoryId": 5,
    "link": "https://www.telkomsel.com/en/mybusiness/pemerintahan/iot/fleet-sight"
  },
  {
    "id": 26,
    "name": "MSIGHT",
    "description": "Melalui solusi yang dibalut oleh insight data telco, kami dapat membantu pengambilan keputusan terbaik untuk bisnis Anda.",
    "feature": "Fokus dalam pemberian insight terkait resiko berbasis analisa profil telekomunikasi. \n\nFokus dalam pemberian insight terkait pola pergerakan berbasis aktivitas pergerakan seluler. \n\nFokus dalam pemberian insight terkait gaya hidup berbasis aktivitas seluler, seperti SMS, telepon, streaming, gaming. \n\nFokus dalam menyediakan Application Program Interface (API) layanan telco dalam marketplace.",
    "banner": "https://www.telkomsel.com/sites/default/files/asset/fullhtml/img/gallery/telkomsel/header_1556572964.jpg",
    "target": "Governance",
    "categoryId": 2,
    "link": "https://www.telkomsel.com/en/mybusiness/pemerintahan/analytics/msight"
  },
  {
    "id": 27,
    "name": "DigiAds",
    "description": "Didukung oleh jaringan pelanggan Telkomsel yang luas, jangkaulah audiens yang tepat dan tersebar diseluruh Indonesia dengan DigiAds.",
    "feature": "Menjangkau pelanggan melalui pesan iklan yang dikirimkan dalam bentuk gambar, teks, dan suara. \n\nPikat hati konsumen dengan gambar memukau untuk hal-hal yang Anda tawarkan pada saat mereka menggunakan Jaringan dan Layanan Telkomsel. \n\nMenarik, menjaga, dan berinteraksi lah dengan pelanggan Anda lewat hadiah. \n\nSolusi programmatic advertising yang menghubungkan pengiklan melalui DSP (Demand-Side Platfrom) atau penerbit melalui SSP (Supply-Side Platform) dengan inventaris afiliasi Telkomsel menggunakan direct sales, private marketplace, dan Real-Time Bidding.",
    "banner": "https://www.telkomsel.com/sites/default/files/asset/fullhtml/img/gallery/telkomsel/le_digiads_header.jpg",
    "target": "Large Enterprise",
    "categoryId": 2,
    "link": "https://www.telkomsel.com/en/mybusiness/korporasi/analytics/digiads"
  },
  {
    "id": 28,
    "name": "Private Network",
    "description": "Solusi jaringan private dengan performansi tinggi, aman dan efisien di area eksplorasi Anda",
    "feature": "Mendukung kebutuhan konektivitas hi-speed dan latensi rendah antar pekerja, mesin dan aplikasi, berbasis teknologi 4G. \n\nMenyediakan konektivitas untuk mendukung aplikasi advance pada aset bergerak dengan menyediakan seamless handover ke jaringan public. \n\nMeningkatkan produktivitas dengan menggelar penambahan jaringan yg ubiquitous secara efisien.",
    "banner": "https://www.telkomsel.com/sites/default/files/asset/fullhtml/img/gallery/telkomsel/header_privatenetwork-01.jpg",
    "target": "Large Enterprise",
    "categoryId": 1,
    "link": "https://www.telkomsel.com/en/mybusiness/korporasi/advanced-connectivity/private-network"
  },
  {
    "id": 29,
    "name": "Mobile App Protection",
    "description": "Untuk keamanan di dalam Aplikasi bisnis Anda",
    "banner": "https://www.telkomsel.com/sites/default/files/asset/fullhtml/img/gallery/telkomsel/Header_app_protection.jpg",
    "target": "Large Enterprise",
    "categoryId": 6,
    "link": "https://www.telkomsel.com/en/mybusiness/korporasi/security/apps-protection"
  },
  {
    "id": 30,
    "name": "Mobile Endpoint Protection",
    "description": "Melindungi berbagai perangkat bisnis Anda dari bahaya",
    "feature": "Aplikasi adalah cara utama mengakses data sensitif di perangkat seluler, dengan risiko yang mencakup iOS dan Android. \n\nKerentanan OS terus meningkat di iOS dan Android. Kecepatan di mana penjahat dunia maya mengembangkan eksploitasi sejalan dengan peningkatan keamanan. \n\nSeringkali mengambil bentuk serangan man-in-the-middle, ancaman jaringan ini biasanya dijalankan dengan memalsukan hotspot Wi-Fi untuk mencegat lalu lintas jaringan dan mendekripsi data sensitive. \n\nPerlindungan pencurian akun menghentikan kejahatan dunia maya untuk mengeksploitasi faktor bentuk kecil seluler. Kami menganalisis semua permintaan web tanpa memeriksa konten, yang memungkinkan perlindungan terhadap phishing seluler sekaligus melindungi privasi pengguna akhir.",
    "banner": "https://www.telkomsel.com/sites/default/files/asset/fullhtml/img/gallery/telkomsel/Header_app_endpoint_protection.jpg",
    "target": "Large Enterprise",
    "categoryId": 6,
    "link": "https://www.telkomsel.com/en/mybusiness/korporasi/security/mobile-endpoint-protection"
  },
  {
    "id": 31,
    "name": "HumanCloudz",
    "description": "Kini semakin mudah mengatur dan mengelola data banyak karyawan dengan solusi Human Cloudz dari Telkomsel.",
    "feature": "Karyawan dapat melakukan absen dari komputer atau melalui handphone. Pemindai sidik jari dapat digunakan dengan sistem, memastikan karyawan hadir saat absen. \n\nMemudahkan proses pembayaran gaji melalui transfer dan terhubung langsung ke aplikasi transfer dana yang disediakan oleh bank. \n\nPengajuan dan persetujuan izin cuti dapat dilakukan dengan cepat dan mudah. \n\nJika karyawan lupa untuk memindai tanda terima, karyawan cukup foto tanda terima dengan ponsel dan mengisi formulir klaim.",
    "banner": "https://www.telkomsel.com/sites/default/files/asset/fullhtml/img/gallery/telkomsel/sme_header_humancloudz.jpg",
    "target": "Small & Medium Enterprise",
    "categoryId": 4,
    "link": "https://www.telkomsel.com/en/mybusiness/umkm/cloud/humancloudz"
  },
  {
    "id": 32,
    "name": "Enterprise+",
    "description": "Tingkatkan produktivitas dengan benefit istimewa.",
    "feature": "Memberikan kemudahan bagi pelanggan korporat yang menginginkan penggunaan kartu prabayar untuk kebutuhan perusahaan. \n\nBerapapun jumlah karyawan di perusahaan Anda, Anda dapat dengan bisa menggunakan layanan Enterprise+. \n\nBekerja sama antar karyawan menjadi lebih mudah didukung dengan paket khusus untuk telpon, sms dan internet.",
    "banner": "https://www.telkomsel.com/sites/default/files/asset/fullhtml/img/gallery/telkomsel/enterprise_plus_header.jpg",
    "target": "Large Enterprise",
    "categoryId": 3,
    "link": "https://www.telkomsel.com/en/mybusiness/korporasi/basic-connectivity/enterprise-plus"
  },
  {
    "id": 33,
    "name": "Telkomsel Body Smart Thermal",
    "description": "Teknologi pendeteksi suhu tubuh dengan solusi lengkap.",
    "feature": "Mendeteksi sejumlah objek secara otomatis dengan jarak hingga 5 meter \n\nMendeteksi objek secara otomatis dengan jarak 30cm – 50cm \n\nMemonitor traffic dan statistik secara real-time melalui dashboard yang komprehensif \n\nIntegrasi API untuk akses door control",
    "banner": "https://www.telkomsel.com/sites/default/files/asset/fullhtml/img/gallery/telkomsel/smart_thermal_header.jpg",
    "target": "Large Enterprise",
    "categoryId": 4,
    "link": "https://www.telkomsel.com/en/mybusiness/korporasi/cloud/smart-thermal"
  }
]